<svg xmlns="http://www.w3.org/2000/svg" viewBox="0 0 414 465">
  <defs>
    <style>
      .cls-1 {
        fill: #eeeeee;
      }
    </style>
  </defs>
  <path id="Path_2" data-name="Path 2" class="cls-1" d="M0,0H414V465L209,376.6,0,465Z"/>
</svg>
